{
  "$schema": "https://xunit.net/schema/current/xunit.runner.schema.json",
  "parallelizeAssembly": true,
  "parallelizeTestCollections": true,
  "methodDisplay": "method",
  "methodDisplayOptions": "all"
}